…
```r
> setwd("~/Desktop/")
> library("eloquent.researcher")
> DB
[1] "<emuDBhandle> (dbName = 'src', basePath = '[....]/Desktop/my-project/Data/humlabspeech_emuDB')"
> emuR::list_files(DB)
# A tibble: 28 x 4
   session bundle   file                absolute_file_path                                                                                   
   <chr>   <chr>    <chr>               <chr>                                                                                                
 1 0000    msajc003 msajc003_annot.json /Users/frkkan96/Desktop/my-project/Data/humlabspeech_emuDB/0000_ses/msajc003_bndl/msajc003_annot.json
 2 0000    msajc003 msajc003.dft        /Users/frkkan96/Desktop/my-project/Data/humlabspeech_emuDB/0000_ses/msajc003_bndl/msajc003.dft       
 3 0000    msajc003 msajc003.fms        /Users/frkkan96/Desktop/my-project/Data/humlabspeech_emuDB/0000_ses/msajc003_bndl/msajc003.fms       
 4 0000    msajc003 msajc003.wav        /Users/frkkan96/Desktop/my-project/Data/humlabspeech_emuDB/0000_ses/msajc003_bndl/msajc003.wav       
 5 0000    msajc010 msajc010_annot.json /Users/frkkan96/Desktop/my-project/Data/humlabspeech_emuDB/0000_ses/msajc010_bndl/msajc010_annot.json
 6 0000    msajc010 msajc010.dft        /Users/frkkan96/Desktop/my-project/Data/humlabspeech_emuDB/0000_ses/msajc010_bndl/msajc010.dft       
 7 0000    msajc010 msajc010.fms        /Users/frkkan96/Desktop/my-project/Data/humlabspeech_emuDB/0000_ses/msajc010_bndl/msajc010.fms       
 8 0000    msajc010 msajc010.wav        /Users/frkkan96/Desktop/my-project/Data/humlabspeech_emuDB/0000_ses/msajc010_bndl/msajc010.wav       
 9 0000    msajc012 msajc012_annot.json /Users/frkkan96/Desktop/my-project/Data/humlabspeech_emuDB/0000_ses/msajc012_bndl/msajc012_annot.json
10 0000    msajc012 msajc012.dft        /Users/frkkan96/Desktop/my-project/Data/humlabspeech_emuDB/0000_ses/msajc012_bndl/msajc012.dft       
# … with 18 more rows
```
…
